Math 32 - Confidence Intervals
…
Source: Statistical Inference via Data Science: A Modern Dive into R and the Tidyverse

Chapter 8: Bootstrapping and Confidence Intervals

https://moderndive.com/8-confidence-intervals.html

Setting: Pennies

Among pennies in circulation in 2019, what was the average year of minting? We have a sample size of 50 pennies.

# looking at the data set
pennies_sample

# A tibble: 50 × 2
      ID  year
   <int> <dbl>
 1     1  2002
 2     2  1986
 3     3  2017
 4     4  1988
 5     5  2008
 6     6  1983
 7     7  2008
 8     8  1996
 9     9  2004
10    10  2000
# ℹ 40 more rows
…
Resampled Many Times

Suppose now that we have each person in a 30-student discussion section repeat the act of drawing those 50 pennies with replacement.

pennies_resampled_many <- pennies_sample %>%
  rep_sample_n(size = 50, replace = TRUE, reps = 30)

Now we have each virtual student report their mean year.

pennies_resampled_many %>%
  group_by(replicate) %>%
  summarize(mean_year = mean(year))

# A tibble: 30 × 2
   replicate mean_year
       <int>     <dbl>
 1         1     1998.
 2         2     1991.
 3         3     1996.
 4         4     1991.
 5         5     1998.
 6         6     1995.
 7         7     1993.
 8         8     1994.
 9         9     1997.
10        10     1995.
# ℹ 20 more rows
…
Using the infer package

pennies_sample %>%
  specify(response = year)

Response: year (numeric)
# A tibble: 50 × 1
    year
   <dbl>
 1  2002
 2  1986
 3  2017
 4  1988
 5  2008
 6  1983
 7  2008
 8  1996
 9  2004
10  2000
# ℹ 40 more rows
…
Response: year (numeric)
# A tibble: 1 × 1
   stat
  <dbl>
1 1995.

pennies_sample %>%
  specify(response = year) %>%
  generate(reps = 1337, type = "bootstrap")

Response: year (numeric)
# A tibble: 66,850 × 2
# Groups:   replicate [1,337]
   replicate  year
       <int> <dbl>
 1         1  1983
 2         1  1992
 3         1  2015
 4         1  2018
 5         1  1997
 6         1  1988
 7         1  2017
 8         1  1976
 9         1  1985
10         1  2015
# ℹ 66,840 more rows

bootstrap_distribution <- pennies_sample %>%
  specify(response = year) %>%
  generate(reps = 1337, type = "bootstrap") %>%
  calculate(stat = "mean")

# print
bootstrap_distribution

Response: year (numeric)
# A tibble: 1,337 × 2
   replicate  stat
       <int> <dbl>
 1         1 1998.
 2         2 1994.
 3         3 1990.
 4         4 1998.
 5         5 1996.
 6         6 1996.
 7         7 1998.
 8         8 1996.
 9         9 1998.
10        10 1993.
# ℹ 1,327 more rows
…
