Math 32 - Hypothesis Testing
…
“Fourth, the observed test statistic is the value of the test statistic that we observed in real-life.” In this example the observed difference was

\[\hat{p}_{m} - \hat{p}_{f} = 0.875 - 0.583 = 0.292\]

“Fifth, the null distribution is the sampling distribution of the test statistic assuming the null hypothesis \(H_0\) is true.”

Conducting a Hypothesis Test with infer

promotions %>% 
  specify(formula = decision ~ gender, success = "promoted")

Response: decision (factor)
Explanatory: gender (factor)
# A tibble: 48 × 2
   decision gender
   <fct>    <fct> 
 1 promoted male  
 2 promoted male  
 3 promoted male  
 4 promoted male  
 5 promoted male  
 6 promoted male  
 7 promoted male  
 8 promoted male  
 9 promoted male  
10 promoted male  
# … with 38 more rows

promotions %>% 
  specify(formula = decision ~ gender, success = "promoted") %>% 
  # "point" for single sample or "independence" for two samples
  hypothesize(null = "independence")

Response: decision (factor)
Explanatory: gender (factor)
Null Hypothesis: independence
# A tibble: 48 × 2
   decision gender
   <fct>    <fct> 
 1 promoted male  
 2 promoted male  
 3 promoted male  
 4 promoted male  
 5 promoted male  
 6 promoted male  
 7 promoted male  
 8 promoted male  
 9 promoted male  
10 promoted male  
# … with 38 more rows
…
