Math 32 - Case Study: Yawning
…
Case Study

After each code block, to the best of your current ability, describe what the R code is doing.

This material comes from Chapter 8 of Statistical Inference via Data Science: A ModernDive into R and the Tidyverse

https://moderndive.com/8-confidence-intervals.html#case-study-two-prop-ci

“Let’s apply our knowledge of confidence intervals to answer the question: “Is yawning contagious?”. If you see someone else yawn, are you more likely to yawn? In an episode of the US show Mythbusters, the hosts conducted an experiment to answer this question.”

“Fifty adult participants who thought they were being considered for an appearance on the show were interviewed by a show recruiter. In the interview, the recruiter either yawned or did not. Participants then sat by themselves in a large van and were asked to wait. While in the van, the Mythbusters team watched the participants using a hidden camera to see if they yawned. The data frame containing the results of their experiment is available in the mythbusters_yawn data frame included in the moderndive package:”

mythbusters_yawn

# A tibble: 50 × 3
    subj group   yawn 
   <int> <chr>   <chr>
 1     1 seed    yes  
 2     2 control yes  
 3     3 seed    no   
 4     4 seed    yes  
 5     5 seed    no   
 6     6 control no   
 7     7 seed    yes  
 8     8 control no   
 9     9 control no   
10    10 seed    no   
# … with 40 more rows
…
# A tibble: 4 × 3
# Groups:   group [2]
  group   yawn  count
  <chr>   <chr> <int>
1 control no       12
2 control yes       4
3 seed    no       24
4 seed    yes      10

mythbusters_yawn %>% 
  specify(formula = yawn ~ group, success = "yes")

Response: yawn (factor)
Explanatory: group (factor)
# A tibble: 50 × 2
   yawn  group  
   <fct> <fct>  
 1 yes   seed   
 2 yes   control
 3 no    seed   
 4 yes   seed   
 5 no    seed   
 6 no    control
 7 yes   seed   
 8 no    control
 9 no    control
10 no    seed   
# … with 40 more rows
…
mythbusters_yawn %>% 
  specify(formula = yawn ~ group, success = "yes") %>% 
  generate(reps = 1000, type = "bootstrap")

Response: yawn (factor)
Explanatory: group (factor)
# A tibble: 50,000 × 3
# Groups:   replicate [1,000]
   replicate yawn  group  
       <int> <fct> <fct>  
 1         1 no    control
 2         1 yes   seed   
 3         1 no    seed   
 4         1 no    seed   
 5         1 no    seed   
 6         1 no    seed   
 7         1 no    seed   
 8         1 yes   seed   
 9         1 no    control
10         1 no    control
# … with 49,990 more rows

bootstrap_distribution_yawning <- mythbusters_yawn %>% 
  specify(formula = yawn ~ group, success = "yes") %>% 
  generate(reps = 1000, type = "bootstrap") %>% 
  calculate(stat = "diff in props", order = c("seed", "control"))
bootstrap_distribution_yawning

Response: yawn (factor)
Explanatory: group (factor)
# A tibble: 1,000 × 2
   replicate    stat
       <int>   <dbl>
 1         1  0.225 
 2         2 -0.0870
 3         3 -0.0762
 4         4  0.103 
 5         5  0.0350
 6         6  0.333 
 7         7  0.0390
 8         8  0.228 
 9         9 -0.075 
10        10 -0.105 
# … with 990 more rows
…
